<mxfile host="65bd71144e">
    <diagram name="Seite-1" id="jWuP6vxprlXq5_fjBCEY">
        <mxGraphModel dx="671" dy="500" grid="0" gridSize="2" guides="1" tooltips="1" connect="1" arrows="1" fold="1" page="1" pageScale="1" pageWidth="827" pageHeight="1169" background="#ffffff" math="0" shadow="0">
            <root>
                <mxCell id="0"/>
                <mxCell id="1" parent="0"/>
                <mxCell id="YsPMtXFnCWAnpov6BFo2-2" value="&lt;b&gt;&lt;font style=&quot;font-size: 24px;&quot;&gt;sett&lt;/font&gt;&lt;/b&gt;" style="rounded=1;whiteSpace=wrap;html=1;strokeWidth=2;fillWeight=4;hachureGap=8;hachureAngle=45;fillColor=#99CCFF;sketch=1;strokeColor=#004C99;" parent="1" vertex="1">
                    <mxGeometry x="250" y="180" width="120" height="60" as="geometry"/>
                </mxCell>
                <mxCell id="YsPMtXFnCWAnpov6BFo2-3" value="&lt;b&gt;&lt;font style=&quot;font-size: 24px;&quot;&gt;Portal&lt;/font&gt;&lt;/b&gt;" style="ellipse;whiteSpace=wrap;html=1;strokeWidth=2;fillWeight=2;hachureGap=8;fillColor=#33FF33;fillStyle=dots;sketch=1;strokeColor=#4D9900;" parent="1" vertex="1">
                    <mxGeometry x="784" y="170" width="184" height="75" as="geometry"/>
                </mxCell>
                <mxCell id="-KM9x8BlMl-FCb7_R9JC-2" value="&lt;b&gt;&lt;font style=&quot;font-size: 24px;&quot;&gt;OIDC provider&lt;/font&gt;&lt;/b&gt;" style="rhombus;whiteSpace=wrap;html=1;strokeWidth=2;fillWeight=-1;hachureGap=8;fillStyle=cross-hatch;fillColor=#FFB366;sketch=1;strokeColor=#CC6600;" parent="1" vertex="1">
                    <mxGeometry x="480" y="150" width="240" height="120" as="geometry"/>
                </mxCell>
                <mxCell id="-KM9x8BlMl-FCb7_R9JC-3" value="&lt;div&gt;&lt;b&gt;&lt;font style=&quot;font-size: 24px;&quot;&gt;user&lt;/font&gt;&lt;/b&gt;&lt;br&gt;&lt;/div&gt;" style="shape=umlActor;verticalLabelPosition=bottom;verticalAlign=top;html=1;outlineConnect=0;strokeWidth=2;" parent="1" vertex="1">
                    <mxGeometry x="38" y="130" width="30" height="60" as="geometry"/>
                </mxCell>
                <mxCell id="-KM9x8BlMl-FCb7_R9JC-29" value="&lt;b&gt;&lt;font style=&quot;font-size: 24px;&quot;&gt;S3 object storage&lt;/font&gt;&lt;/b&gt;" style="shape=cylinder3;whiteSpace=wrap;html=1;boundedLbl=1;backgroundOutline=1;size=15;strokeWidth=2;fillColor=#E6E6E6;strokeColor=#9673a6;gradientColor=#4D4D4D;gradientDirection=east;" parent="1" vertex="1">
                    <mxGeometry x="1082" y="138" width="146" height="100" as="geometry"/>
                </mxCell>
                <mxCell id="-KM9x8BlMl-FCb7_R9JC-50" value="" style="rounded=1;whiteSpace=wrap;html=1;strokeWidth=2;fillWeight=4;hachureGap=8;hachureAngle=45;fillColor=#99CCFF;sketch=1;strokeColor=#004C99;" parent="1" vertex="1">
                    <mxGeometry x="305" y="255" width="10" height="165" as="geometry"/>
                </mxCell>
                <mxCell id="-KM9x8BlMl-FCb7_R9JC-52" value="" style="endArrow=classic;html=1;rounded=0;" parent="1" edge="1">
                    <mxGeometry width="50" height="50" relative="1" as="geometry">
                        <mxPoint x="64" y="320" as="sourcePoint"/>
                        <mxPoint x="300" y="320" as="targetPoint"/>
                    </mxGeometry>
                </mxCell>
                <mxCell id="-KM9x8BlMl-FCb7_R9JC-53" value="1a) &lt;b&gt;request authentication&lt;/b&gt;" style="edgeLabel;html=1;align=left;verticalAlign=middle;resizable=0;points=[];" parent="-KM9x8BlMl-FCb7_R9JC-52" vertex="1" connectable="0">
                    <mxGeometry x="-0.1779" y="2" relative="1" as="geometry">
                        <mxPoint x="-75" y="-9" as="offset"/>
                    </mxGeometry>
                </mxCell>
                <mxCell id="-KM9x8BlMl-FCb7_R9JC-55" value="" style="rounded=1;whiteSpace=wrap;html=1;strokeWidth=2;fillWeight=-1;hachureGap=8;hachureAngle=45;fillColor=#FFB366;fillStyle=cross-hatch;strokeColor=#CC6600;sketch=1;curveFitting=1;jiggle=2;glass=0;align=center;verticalAlign=middle;fontFamily=Helvetica;fontSize=12;fontColor=default;" parent="1" vertex="1">
                    <mxGeometry x="594" y="282" width="10" height="262" as="geometry"/>
                </mxCell>
                <mxCell id="-KM9x8BlMl-FCb7_R9JC-59" value="" style="endArrow=classic;html=1;rounded=0;" parent="1" edge="1">
                    <mxGeometry width="50" height="50" relative="1" as="geometry">
                        <mxPoint x="324" y="320" as="sourcePoint"/>
                        <mxPoint x="576" y="320" as="targetPoint"/>
                    </mxGeometry>
                </mxCell>
                <mxCell id="-KM9x8BlMl-FCb7_R9JC-60" value="1b) request device authorisation flow" style="edgeLabel;html=1;align=left;verticalAlign=middle;resizable=0;points=[];" parent="-KM9x8BlMl-FCb7_R9JC-59" vertex="1" connectable="0">
                    <mxGeometry x="0.0522" relative="1" as="geometry">
                        <mxPoint x="-99" y="-8" as="offset"/>
                    </mxGeometry>
                </mxCell>
                <mxCell id="-KM9x8BlMl-FCb7_R9JC-63" value="" style="endArrow=none;dashed=1;html=1;rounded=0;startArrow=classic;startFill=1;" parent="1" edge="1">
                    <mxGeometry width="50" height="50" relative="1" as="geometry">
                        <mxPoint x="322" y="364" as="sourcePoint"/>
                        <mxPoint x="572" y="364" as="targetPoint"/>
                    </mxGeometry>
                </mxCell>
                <mxCell id="-KM9x8BlMl-FCb7_R9JC-65" value="" style="endArrow=none;dashed=1;html=1;rounded=0;startArrow=classic;startFill=1;" parent="1" edge="1">
                    <mxGeometry width="50" height="50" relative="1" as="geometry">
                        <mxPoint x="58" y="364" as="sourcePoint"/>
                        <mxPoint x="294" y="364" as="targetPoint"/>
                    </mxGeometry>
                </mxCell>
                <mxCell id="-KM9x8BlMl-FCb7_R9JC-66" value="" style="rounded=1;whiteSpace=wrap;html=1;strokeWidth=2;fillWeight=4;hachureGap=8;hachureAngle=45;fillColor=#99CCFF;sketch=1;strokeColor=#004C99;" parent="1" vertex="1">
                    <mxGeometry x="305" y="490" width="10" height="482" as="geometry"/>
                </mxCell>
                <mxCell id="-KM9x8BlMl-FCb7_R9JC-67" value="" style="endArrow=classic;html=1;rounded=0;" parent="1" edge="1">
                    <mxGeometry width="50" height="50" relative="1" as="geometry">
                        <mxPoint x="324" y="408" as="sourcePoint"/>
                        <mxPoint x="574" y="408" as="targetPoint"/>
                    </mxGeometry>
                </mxCell>
                <mxCell id="-KM9x8BlMl-FCb7_R9JC-68" value="1e) &lt;font style=&quot;font-size: 17px;&quot;&gt;↻&lt;/font&gt; polling for device ABCD-1234" style="edgeLabel;html=1;align=left;verticalAlign=middle;resizable=0;points=[];labelBackgroundColor=none;" parent="-KM9x8BlMl-FCb7_R9JC-67" vertex="1" connectable="0">
                    <mxGeometry x="0.0522" relative="1" as="geometry">
                        <mxPoint x="-99" y="-10" as="offset"/>
                    </mxGeometry>
                </mxCell>
                <mxCell id="-KM9x8BlMl-FCb7_R9JC-69" value="" style="endArrow=classic;html=1;rounded=0;" parent="1" edge="1">
                    <mxGeometry width="50" height="50" relative="1" as="geometry">
                        <mxPoint x="64" y="442" as="sourcePoint"/>
                        <mxPoint x="576" y="442" as="targetPoint"/>
                    </mxGeometry>
                </mxCell>
                <mxCell id="-KM9x8BlMl-FCb7_R9JC-70" value="1f) visit http://oidc.org/device/ABCD-1234&lt;div&gt;&amp;nbsp; &amp;nbsp; &amp;nbsp;authenticate &amp;amp; grant device access&lt;/div&gt;" style="edgeLabel;html=1;align=left;verticalAlign=middle;resizable=0;points=[];" parent="-KM9x8BlMl-FCb7_R9JC-69" vertex="1" connectable="0">
                    <mxGeometry x="-0.1779" y="2" relative="1" as="geometry">
                        <mxPoint x="-189" y="3" as="offset"/>
                    </mxGeometry>
                </mxCell>
                <mxCell id="-KM9x8BlMl-FCb7_R9JC-71" value="" style="rounded=1;whiteSpace=wrap;html=1;strokeWidth=2;fillWeight=4;hachureGap=8;hachureAngle=45;fillColor=#FF99CC;sketch=1;strokeColor=#99004D;" parent="1" vertex="1">
                    <mxGeometry x="42" y="256" width="12" height="798" as="geometry"/>
                </mxCell>
                <mxCell id="-KM9x8BlMl-FCb7_R9JC-72" value="" style="rounded=1;whiteSpace=wrap;html=1;strokeWidth=2;fillWeight=2;hachureGap=8;hachureAngle=45;fillColor=#33FF33;sketch=1;fillStyle=dots;strokeColor=#4D9900;align=center;verticalAlign=middle;fontFamily=Helvetica;fontSize=12;fontColor=default;" parent="1" vertex="1">
                    <mxGeometry x="874" y="255" width="10" height="615" as="geometry"/>
                </mxCell>
                <UserObject label="&lt;span style=&quot;caret-color: rgb(0, 0, 0); color: rgb(0, 0, 0); font-family: Helvetica; font-size: 11px; font-style: normal; font-variant-caps: normal; font-weight: 400; letter-spacing: normal; orphans: auto; text-align: left; text-indent: 0px; text-transform: none; white-space: nowrap; widows: auto; word-spacing: 0px; -webkit-text-stroke-width: 0px; background-color: rgb(255, 255, 255); text-decoration: none; display: inline !important; float: none;&quot;&gt;1c) URL to authenticate:&lt;/span&gt;&lt;div&gt;&lt;div style=&quot;caret-color: rgb(0, 0, 0); color: rgb(0, 0, 0); font-family: Helvetica; font-size: 11px; font-style: normal; font-variant-caps: normal; font-weight: 400; letter-spacing: normal; orphans: auto; text-align: left; text-indent: 0px; text-transform: none; white-space: nowrap; widows: auto; word-spacing: 0px; -webkit-text-stroke-width: 0px; background-color: rgb(255, 255, 255); text-decoration: none;&quot;&gt;&amp;nbsp; &amp;nbsp; &amp;nbsp; https://oidc.org/device/ABCD-1234&lt;/div&gt;&lt;/div&gt;" link="&lt;span style=&quot;caret-color: rgb(0, 0, 0); color: rgb(0, 0, 0); font-family: Helvetica; font-size: 11px; font-style: normal; font-variant-caps: normal; font-weight: 400; letter-spacing: normal; orphans: auto; text-align: left; text-indent: 0px; text-transform: none; white-space: nowrap; widows: auto; word-spacing: 0px; -webkit-text-stroke-width: 0px; background-color: rgb(255, 255, 255); text-decoration: none; display: inline !important; float: none;&quot;&gt;URL to authenticate:&lt;/span&gt;&lt;div style=&quot;caret-color: rgb(0, 0, 0); color: rgb(0, 0, 0); font-family: Helvetica; font-size: 11px; font-style: normal; font-variant-caps: normal; font-weight: 400; letter-spacing: normal; orphans: auto; text-align: left; text-indent: 0px; text-transform: none; white-space: nowrap; widows: auto; word-spacing: 0px; -webkit-text-stroke-width: 0px; background-color: rgb(255, 255, 255); text-decoration: none;&quot;&gt;https://oidc.org/device/ABCD-1234&lt;/div&gt;" id="-KM9x8BlMl-FCb7_R9JC-73">
                    <mxCell style="text;html=1;spacingTop=0;whiteSpace=wrap;spacing=2;spacingBottom=-1;fillColor=default;fillStyle=solid;" parent="1" vertex="1">
                        <mxGeometry x="358" y="342" width="190" height="42" as="geometry"/>
                    </mxCell>
                </UserObject>
                <UserObject label="&lt;span style=&quot;caret-color: rgb(0, 0, 0); color: rgb(0, 0, 0); font-family: Helvetica; font-size: 11px; font-style: normal; font-variant-caps: normal; font-weight: 400; letter-spacing: normal; orphans: auto; text-align: left; text-indent: 0px; text-transform: none; white-space: nowrap; widows: auto; word-spacing: 0px; -webkit-text-stroke-width: 0px; background-color: rgb(255, 255, 255); text-decoration: none; display: inline !important; float: none;&quot;&gt;1d) Please visit&lt;/span&gt;&lt;div&gt;&lt;span style=&quot;font-size: 11px; white-space: nowrap; background-color: rgb(255, 255, 255);&quot;&gt;&amp;nbsp; &amp;nbsp; &amp;nbsp; http://oidc.org/device/ABCD-1234&lt;/span&gt;&lt;/div&gt;" link="&lt;span style=&quot;caret-color: rgb(0, 0, 0); color: rgb(0, 0, 0); font-family: Helvetica; font-size: 11px; font-style: normal; font-variant-caps: normal; font-weight: 400; letter-spacing: normal; orphans: auto; text-align: left; text-indent: 0px; text-transform: none; white-space: nowrap; widows: auto; word-spacing: 0px; -webkit-text-stroke-width: 0px; background-color: rgb(255, 255, 255); text-decoration: none; display: inline !important; float: none;&quot;&gt;URL to authenticate:&lt;/span&gt;&lt;div style=&quot;caret-color: rgb(0, 0, 0); color: rgb(0, 0, 0); font-family: Helvetica; font-size: 11px; font-style: normal; font-variant-caps: normal; font-weight: 400; letter-spacing: normal; orphans: auto; text-align: left; text-indent: 0px; text-transform: none; white-space: nowrap; widows: auto; word-spacing: 0px; -webkit-text-stroke-width: 0px; background-color: rgb(255, 255, 255); text-decoration: none;&quot;&gt;https://oidc.org/device/ABCD-1234&lt;/div&gt;" id="-KM9x8BlMl-FCb7_R9JC-74">
                    <mxCell style="text;html=1;spacingTop=0;whiteSpace=wrap;spacing=2;spacingBottom=-1;fontFamily=Helvetica;fontSize=12;fontColor=default;fillColor=default;fillStyle=solid;" parent="1" vertex="1">
                        <mxGeometry x="86" y="342" width="190" height="42" as="geometry"/>
                    </mxCell>
                </UserObject>
                <mxCell id="-KM9x8BlMl-FCb7_R9JC-75" value="" style="endArrow=none;dashed=1;html=1;rounded=0;startArrow=classic;startFill=1;" parent="1" edge="1">
                    <mxGeometry width="50" height="50" relative="1" as="geometry">
                        <mxPoint x="64" y="474" as="sourcePoint"/>
                        <mxPoint x="575" y="474" as="targetPoint"/>
                    </mxGeometry>
                </mxCell>
                <mxCell id="-KM9x8BlMl-FCb7_R9JC-77" value="1h) Authentication OK + &lt;b&gt;JWT Token&lt;/b&gt;" style="edgeLabel;html=1;align=left;verticalAlign=middle;resizable=0;points=[];" parent="1" vertex="1" connectable="0">
                    <mxGeometry x="359.3333333333335" y="502" as="geometry"/>
                </mxCell>
                <mxCell id="-KM9x8BlMl-FCb7_R9JC-78" value="" style="endArrow=none;dashed=1;html=1;rounded=0;startArrow=classic;startFill=1;" parent="1" edge="1">
                    <mxGeometry width="50" height="50" relative="1" as="geometry">
                        <mxPoint x="324" y="516" as="sourcePoint"/>
                        <mxPoint x="572" y="516" as="targetPoint"/>
                    </mxGeometry>
                </mxCell>
                <mxCell id="-KM9x8BlMl-FCb7_R9JC-79" value="1g) Authentication OK" style="edgeLabel;html=1;align=left;verticalAlign=middle;resizable=0;points=[];" parent="1" vertex="1" connectable="0">
                    <mxGeometry x="358.0033333333335" y="462" as="geometry"/>
                </mxCell>
                <mxCell id="-KM9x8BlMl-FCb7_R9JC-80" value="" style="endArrow=classic;html=1;rounded=0;" parent="1" edge="1">
                    <mxGeometry width="50" height="50" relative="1" as="geometry">
                        <mxPoint x="326" y="564" as="sourcePoint"/>
                        <mxPoint x="864" y="564" as="targetPoint"/>
                    </mxGeometry>
                </mxCell>
                <mxCell id="-KM9x8BlMl-FCb7_R9JC-81" value="2a) &lt;b&gt;request list of DTR&lt;/b&gt;&amp;nbsp;w/ JWT Token&amp;nbsp;" style="edgeLabel;html=1;align=left;verticalAlign=middle;resizable=0;points=[];" parent="-KM9x8BlMl-FCb7_R9JC-80" vertex="1" connectable="0">
                    <mxGeometry x="-0.1779" y="2" relative="1" as="geometry">
                        <mxPoint x="-189" y="-8" as="offset"/>
                    </mxGeometry>
                </mxCell>
                <mxCell id="-KM9x8BlMl-FCb7_R9JC-83" value="" style="rounded=1;whiteSpace=wrap;html=1;strokeWidth=2;fillWeight=-1;hachureGap=8;hachureAngle=45;fillColor=#FFB366;fillStyle=cross-hatch;strokeColor=#CC6600;sketch=1;curveFitting=1;jiggle=2;glass=0;align=center;verticalAlign=middle;fontFamily=Helvetica;fontSize=12;fontColor=default;" parent="1" vertex="1">
                    <mxGeometry x="594" y="580" width="10" height="82" as="geometry"/>
                </mxCell>
                <mxCell id="-KM9x8BlMl-FCb7_R9JC-84" value="2b) verify&amp;nbsp;JWT Token" style="edgeLabel;html=1;align=left;verticalAlign=middle;resizable=0;points=[];" parent="1" vertex="1" connectable="0">
                    <mxGeometry x="646.3333333333335" y="598" as="geometry"/>
                </mxCell>
                <mxCell id="-KM9x8BlMl-FCb7_R9JC-85" value="" style="endArrow=none;html=1;rounded=0;startArrow=classic;startFill=1;" parent="1" edge="1">
                    <mxGeometry width="50" height="50" relative="1" as="geometry">
                        <mxPoint x="614" y="608" as="sourcePoint"/>
                        <mxPoint x="862" y="608" as="targetPoint"/>
                    </mxGeometry>
                </mxCell>
                <mxCell id="-KM9x8BlMl-FCb7_R9JC-86" value="" style="endArrow=classic;html=1;rounded=0;dashed=1;" parent="1" edge="1">
                    <mxGeometry width="50" height="50" relative="1" as="geometry">
                        <mxPoint x="614" y="642" as="sourcePoint"/>
                        <mxPoint x="864" y="642" as="targetPoint"/>
                    </mxGeometry>
                </mxCell>
                <mxCell id="-KM9x8BlMl-FCb7_R9JC-87" value="2c) OK" style="edgeLabel;html=1;align=left;verticalAlign=middle;resizable=0;points=[];" parent="-KM9x8BlMl-FCb7_R9JC-86" vertex="1" connectable="0">
                    <mxGeometry x="0.0522" relative="1" as="geometry">
                        <mxPoint x="-99" y="-8" as="offset"/>
                    </mxGeometry>
                </mxCell>
                <mxCell id="-KM9x8BlMl-FCb7_R9JC-88" value="" style="endArrow=none;html=1;rounded=0;startArrow=classic;startFill=1;dashed=1;" parent="1" edge="1">
                    <mxGeometry width="50" height="50" relative="1" as="geometry">
                        <mxPoint x="324" y="684" as="sourcePoint"/>
                        <mxPoint x="861" y="686" as="targetPoint"/>
                    </mxGeometry>
                </mxCell>
                <mxCell id="-KM9x8BlMl-FCb7_R9JC-89" value="2d) &lt;b&gt;list of DTR&lt;/b&gt;" style="edgeLabel;html=1;align=left;verticalAlign=middle;resizable=0;points=[];" parent="1" vertex="1" connectable="0">
                    <mxGeometry x="344.00333333333356" y="672" as="geometry"/>
                </mxCell>
                <mxCell id="-KM9x8BlMl-FCb7_R9JC-90" value="" style="endArrow=classic;html=1;rounded=0;" parent="1" edge="1">
                    <mxGeometry width="50" height="50" relative="1" as="geometry">
                        <mxPoint x="331" y="734" as="sourcePoint"/>
                        <mxPoint x="869" y="734" as="targetPoint"/>
                    </mxGeometry>
                </mxCell>
                <mxCell id="-KM9x8BlMl-FCb7_R9JC-91" value="3a) &lt;b&gt;request S3 bucket + credentials&lt;/b&gt;&amp;nbsp; w/ JWT Token&amp;nbsp;" style="edgeLabel;html=1;align=left;verticalAlign=middle;resizable=0;points=[];" parent="-KM9x8BlMl-FCb7_R9JC-90" vertex="1" connectable="0">
                    <mxGeometry x="-0.1779" y="2" relative="1" as="geometry">
                        <mxPoint x="-210" y="-6" as="offset"/>
                    </mxGeometry>
                </mxCell>
                <mxCell id="-KM9x8BlMl-FCb7_R9JC-92" value="" style="rounded=1;whiteSpace=wrap;html=1;strokeWidth=2;fillWeight=-1;hachureGap=8;hachureAngle=45;fillColor=#FFB366;fillStyle=cross-hatch;strokeColor=#CC6600;sketch=1;curveFitting=1;jiggle=2;glass=0;align=center;verticalAlign=middle;fontFamily=Helvetica;fontSize=12;fontColor=default;" parent="1" vertex="1">
                    <mxGeometry x="599" y="750" width="10" height="82" as="geometry"/>
                </mxCell>
                <mxCell id="-KM9x8BlMl-FCb7_R9JC-93" value="3b) verify&amp;nbsp;JWT Token" style="edgeLabel;html=1;align=left;verticalAlign=middle;resizable=0;points=[];" parent="1" vertex="1" connectable="0">
                    <mxGeometry x="654.3333333333335" y="764" as="geometry"/>
                </mxCell>
                <mxCell id="-KM9x8BlMl-FCb7_R9JC-94" value="" style="endArrow=none;html=1;rounded=0;startArrow=classic;startFill=1;" parent="1" edge="1">
                    <mxGeometry width="50" height="50" relative="1" as="geometry">
                        <mxPoint x="619" y="778" as="sourcePoint"/>
                        <mxPoint x="867" y="778" as="targetPoint"/>
                    </mxGeometry>
                </mxCell>
                <mxCell id="-KM9x8BlMl-FCb7_R9JC-95" value="" style="endArrow=classic;html=1;rounded=0;dashed=1;" parent="1" edge="1">
                    <mxGeometry width="50" height="50" relative="1" as="geometry">
                        <mxPoint x="619" y="812" as="sourcePoint"/>
                        <mxPoint x="869" y="812" as="targetPoint"/>
                    </mxGeometry>
                </mxCell>
                <mxCell id="-KM9x8BlMl-FCb7_R9JC-96" value="3c) OK" style="edgeLabel;html=1;align=left;verticalAlign=middle;resizable=0;points=[];" parent="-KM9x8BlMl-FCb7_R9JC-95" vertex="1" connectable="0">
                    <mxGeometry x="0.0522" relative="1" as="geometry">
                        <mxPoint x="-99" y="-8" as="offset"/>
                    </mxGeometry>
                </mxCell>
                <mxCell id="-KM9x8BlMl-FCb7_R9JC-97" value="" style="endArrow=none;html=1;rounded=0;startArrow=classic;startFill=1;dashed=1;" parent="1" edge="1">
                    <mxGeometry width="50" height="50" relative="1" as="geometry">
                        <mxPoint x="329" y="854" as="sourcePoint"/>
                        <mxPoint x="866" y="856" as="targetPoint"/>
                    </mxGeometry>
                </mxCell>
                <mxCell id="-KM9x8BlMl-FCb7_R9JC-98" value="3f) &lt;b&gt;S3 bucket + credentials&lt;/b&gt;" style="edgeLabel;html=1;align=left;verticalAlign=middle;resizable=0;points=[];" parent="1" vertex="1" connectable="0">
                    <mxGeometry x="349.00333333333356" y="842" as="geometry"/>
                </mxCell>
                <mxCell id="-KM9x8BlMl-FCb7_R9JC-99" value="" style="rounded=1;whiteSpace=wrap;html=1;strokeWidth=2;fillWeight=2;hachureGap=8;hachureAngle=45;fillColor=#CCCCCC;sketch=1;fillStyle=dots;strokeColor=#4D4D4D;align=center;verticalAlign=middle;fontFamily=Helvetica;fontSize=12;fontColor=default;" parent="1" vertex="1">
                    <mxGeometry x="1150" y="254" width="10" height="718" as="geometry"/>
                </mxCell>
                <mxCell id="-KM9x8BlMl-FCb7_R9JC-102" value="" style="endArrow=classic;html=1;rounded=0;" parent="1" edge="1">
                    <mxGeometry width="50" height="50" relative="1" as="geometry">
                        <mxPoint x="330" y="900" as="sourcePoint"/>
                        <mxPoint x="1140" y="900" as="targetPoint"/>
                    </mxGeometry>
                </mxCell>
                <mxCell id="-KM9x8BlMl-FCb7_R9JC-103" value="4) &lt;b&gt;request data&lt;/b&gt; w/ S3 bucket + credentials" style="edgeLabel;html=1;align=left;verticalAlign=middle;resizable=0;points=[];" parent="-KM9x8BlMl-FCb7_R9JC-102" vertex="1" connectable="0">
                    <mxGeometry x="-0.1779" y="2" relative="1" as="geometry">
                        <mxPoint x="-317" y="-8" as="offset"/>
                    </mxGeometry>
                </mxCell>
                <mxCell id="-KM9x8BlMl-FCb7_R9JC-104" value="" style="endArrow=classic;html=1;rounded=0;" parent="1" edge="1">
                    <mxGeometry width="50" height="50" relative="1" as="geometry">
                        <mxPoint x="888" y="822" as="sourcePoint"/>
                        <mxPoint x="1138" y="822" as="targetPoint"/>
                    </mxGeometry>
                </mxCell>
                <mxCell id="-KM9x8BlMl-FCb7_R9JC-105" value="3d) get S3 credentials + shared secret" style="edgeLabel;html=1;align=left;verticalAlign=middle;resizable=0;points=[];" parent="-KM9x8BlMl-FCb7_R9JC-104" vertex="1" connectable="0">
                    <mxGeometry x="0.0522" relative="1" as="geometry">
                        <mxPoint x="-99" y="-8" as="offset"/>
                    </mxGeometry>
                </mxCell>
                <mxCell id="-KM9x8BlMl-FCb7_R9JC-106" value="" style="endArrow=none;html=1;rounded=0;startArrow=classic;startFill=1;endFill=0;dashed=1;" parent="1" edge="1">
                    <mxGeometry width="50" height="50" relative="1" as="geometry">
                        <mxPoint x="888" y="856" as="sourcePoint"/>
                        <mxPoint x="1138" y="856" as="targetPoint"/>
                    </mxGeometry>
                </mxCell>
                <mxCell id="-KM9x8BlMl-FCb7_R9JC-107" value="3e) &lt;b&gt;S3 credentials&lt;/b&gt;" style="edgeLabel;html=1;align=left;verticalAlign=middle;resizable=0;points=[];" parent="-KM9x8BlMl-FCb7_R9JC-106" vertex="1" connectable="0">
                    <mxGeometry x="0.0522" relative="1" as="geometry">
                        <mxPoint x="-99" y="-8" as="offset"/>
                    </mxGeometry>
                </mxCell>
                <mxCell id="-KM9x8BlMl-FCb7_R9JC-108" value="" style="endArrow=none;html=1;rounded=0;dashed=1;startArrow=classic;startFill=1;endFill=0;" parent="1" edge="1">
                    <mxGeometry width="50" height="50" relative="1" as="geometry">
                        <mxPoint x="328" y="940" as="sourcePoint"/>
                        <mxPoint x="1138" y="940" as="targetPoint"/>
                    </mxGeometry>
                </mxCell>
                <mxCell id="-KM9x8BlMl-FCb7_R9JC-109" value="4b) download &lt;b&gt;data&lt;/b&gt;" style="edgeLabel;html=1;align=left;verticalAlign=middle;resizable=0;points=[];" parent="-KM9x8BlMl-FCb7_R9JC-108" vertex="1" connectable="0">
                    <mxGeometry x="-0.1779" y="2" relative="1" as="geometry">
                        <mxPoint x="-317" y="-8" as="offset"/>
                    </mxGeometry>
                </mxCell>
            </root>
        </mxGraphModel>
    </diagram>
</mxfile>
